-------------------------------------------------------------------------------
Test set: com.auxolabs.cvision.pipeline.utils.field.normalizers.CaptureDateNormalizerTest
-------------------------------------------------------------------------------
Tests run: 1, Failures: 0, Errors: 0, Skipped: 0, Time elapsed: 2.866 sec
