-------------------------------------------------------------------------------
Test set: com.auxolabs.cvision.pipeline.utils.field.modifiers.ExtendNameByLengthTest
-------------------------------------------------------------------------------
Tests run: 1, Failures: 0, Errors: 0, Skipped: 0, Time elapsed: 0.527 sec
