/home/nstest-admin/Documents/Java/capture-activities-extraction/app/src/main/java/com/auxolabs/cvision/exceptions/ExtractionException.java
/home/nstest-admin/Documents/Java/capture-activities-extraction/app/src/main/java/com/auxolabs/cvision/ml/MLExtractorService.java
/home/nstest-admin/Documents/Java/capture-activities-extraction/app/src/main/java/com/auxolabs/cvision/pipeline/utils/field/normalizers/DateFormatter.java
/home/nstest-admin/Documents/Java/capture-activities-extraction/app/src/main/java/com/auxolabs/cvision/models/cv/ScaleModel.java
/home/nstest-admin/Documents/Java/capture-activities-extraction/app/src/main/java/com/auxolabs/cvision/models/ocr/Segment.java
/home/nstest-admin/Documents/Java/capture-activities-extraction/app/src/main/java/com/auxolabs/cvision/metrics/pipeline/MetricsJobManager.java
/home/nstest-admin/Documents/Java/capture-activities-extraction/app/src/main/java/com/auxolabs/cvision/pipeline/utils/LinesDetector.java
/home/nstest-admin/Documents/Java/capture-activities-extraction/app/src/main/java/com/auxolabs/cvision/pipeline/utils/ImageDetector.java
/home/nstest-admin/Documents/Java/capture-activities-extraction/app/src/main/java/com/auxolabs/cvision/utils/TempLogger.java
/home/nstest-admin/Documents/Java/capture-activities-extraction/app/src/main/java/com/auxolabs/cvision/models/cv/PIBOXHolder.java
/home/nstest-admin/Documents/Java/capture-activities-extraction/app/src/main/java/com/auxolabs/cvision/pipeline/steps/OutputConfigurationProcessorStep.java
/home/nstest-admin/Documents/Java/capture-activities-extraction/app/src/main/java/com/auxolabs/cvision/pipeline/utils/TiffConverter.java
/home/nstest-admin/Documents/Java/capture-activities-extraction/app/src/main/java/com/auxolabs/cvision/di/ConfigModule.java
/home/nstest-admin/Documents/Java/capture-activities-extraction/app/src/main/java/com/auxolabs/cvision/pipeline/steps/helpers/PositionalMappingHelper.java
/home/nstest-admin/Documents/Java/capture-activities-extraction/app/src/main/java/com/auxolabs/cvision/pipeline/steps/DateParserStep.java
/home/nstest-admin/Documents/Java/capture-activities-extraction/app/src/main/java/com/auxolabs/cvision/models/nlp/SplitPatientNameModel.java
/home/nstest-admin/Documents/Java/capture-activities-extraction/app/src/main/java/com/auxolabs/cvision/ml/constants/MLExtractorConstants.java
/home/nstest-admin/Documents/Java/capture-activities-extraction/app/src/main/java/com/auxolabs/cvision/streamlining/segmentation/PreProcessSegment.java
/home/nstest-admin/Documents/Java/capture-activities-extraction/app/src/main/java/com/auxolabs/cvision/pipeline/ExtractionPipeline.java
/home/nstest-admin/Documents/Java/capture-activities-extraction/app/src/main/java/com/auxolabs/cvision/pipeline/steps/helpers/PositionalHelper.java
/home/nstest-admin/Documents/Java/capture-activities-extraction/app/src/main/java/com/auxolabs/cvision/models/mandrake/MandrakeSentenceModel.java
/home/nstest-admin/Documents/Java/capture-activities-extraction/app/src/main/java/com/auxolabs/cvision/streamlining/constants/SegmentationConstants.java
/home/nstest-admin/Documents/Java/capture-activities-extraction/app/src/main/java/com/auxolabs/cvision/streamlining/utils/CharLevelModifier.java
/home/nstest-admin/Documents/Java/capture-activities-extraction/app/src/main/java/com/auxolabs/cvision/ml/models/mlfieldextractionmodels/MLRequestModel.java
/home/nstest-admin/Documents/Java/capture-activities-extraction/app/src/main/java/com/auxolabs/cvision/CaptureApplication.java
/home/nstest-admin/Documents/Java/capture-activities-extraction/app/src/main/java/com/auxolabs/cvision/pipeline/utils/segmentation/Neighbour.java
/home/nstest-admin/Documents/Java/capture-activities-extraction/app/src/main/java/com/auxolabs/cvision/pipeline/steps/DocumentClassificationStep.java
/home/nstest-admin/Documents/Java/capture-activities-extraction/app/src/main/java/com/auxolabs/cvision/pipeline/ExtractionPipelineMessage.java
/home/nstest-admin/Documents/Java/capture-activities-extraction/app/src/main/java/com/auxolabs/cvision/pipeline/steps/helpers/DateParserHelper.java
/home/nstest-admin/Documents/Java/capture-activities-extraction/app/src/main/java/com/auxolabs/cvision/pipeline/utils/segmentation/RowGrouper.java
/home/nstest-admin/Documents/Java/capture-activities-extraction/app/src/main/java/com/auxolabs/cvision/pipeline/steps/ImageProcessingStep.java
/home/nstest-admin/Documents/Java/capture-activities-extraction/app/src/main/java/com/auxolabs/cvision/pipeline/utils/field/modifiers/ExtendSsnByLength.java
/home/nstest-admin/Documents/Java/capture-activities-extraction/app/src/main/java/com/auxolabs/cvision/web/exceptions/DeliveryFailedWithWrongStatusCodeException.java
/home/nstest-admin/Documents/Java/capture-activities-extraction/app/src/main/java/com/auxolabs/cvision/pipeline/steps/helpers/AnnotationExtractorHelper.java
/home/nstest-admin/Documents/Java/capture-activities-extraction/app/src/main/java/com/auxolabs/cvision/streamlining/models/ImageSegment.java
/home/nstest-admin/Documents/Java/capture-activities-extraction/app/src/main/java/com/auxolabs/cvision/pipeline/utils/field/normalizers/CaptureDateNormalizer.java
/home/nstest-admin/Documents/Java/capture-activities-extraction/app/src/main/java/com/auxolabs/cvision/streamlining/segmentation/SegmentationModule.java
/home/nstest-admin/Documents/Java/capture-activities-extraction/app/src/main/java/com/auxolabs/cvision/ml/models/mlfieldextractionmodels/MLResponseModel.java
/home/nstest-admin/Documents/Java/capture-activities-extraction/app/src/main/java/com/auxolabs/cvision/metrics/pipeline/MetricsBlobService.java
/home/nstest-admin/Documents/Java/capture-activities-extraction/app/src/main/java/com/auxolabs/cvision/web/resources/ExtendedHealthCheckResource.java
/home/nstest-admin/Documents/Java/capture-activities-extraction/app/src/main/java/com/auxolabs/cvision/pipeline/utils/field/modifiers/ExtendDateByLength.java
/home/nstest-admin/Documents/Java/capture-activities-extraction/app/src/main/java/com/auxolabs/cvision/streamlining/utils/SegmentationMapping.java
/home/nstest-admin/Documents/Java/capture-activities-extraction/app/src/main/java/com/auxolabs/cvision/metrics/pipeline/PipelineHealthWatchable.java
/home/nstest-admin/Documents/Java/capture-activities-extraction/app/src/main/java/com/auxolabs/cvision/di/ComponentsModule.java
/home/nstest-admin/Documents/Java/capture-activities-extraction/app/src/main/java/com/auxolabs/cvision/db/AzureCosmosDBService.java
/home/nstest-admin/Documents/Java/capture-activities-extraction/app/src/main/java/com/auxolabs/cvision/web/init/CaptureInitializer.java
/home/nstest-admin/Documents/Java/capture-activities-extraction/app/src/main/java/com/auxolabs/cvision/pipeline/steps/helpers/NpiExtractionHelper.java
/home/nstest-admin/Documents/Java/capture-activities-extraction/app/src/main/java/com/auxolabs/cvision/ml/models/request/MLIDRequestModel.java
/home/nstest-admin/Documents/Java/capture-activities-extraction/app/src/main/java/com/auxolabs/cvision/pipeline/steps/helpers/MachineLearningExtractorHelper.java
/home/nstest-admin/Documents/Java/capture-activities-extraction/app/src/main/java/com/auxolabs/cvision/pipeline/utils/segmentation/Node.java
/home/nstest-admin/Documents/Java/capture-activities-extraction/app/src/main/java/com/auxolabs/cvision/ml/models/response/MLIDResponseModel.java
/home/nstest-admin/Documents/Java/capture-activities-extraction/app/src/main/java/com/auxolabs/cvision/models/cv/PBText.java
/home/nstest-admin/Documents/Java/capture-activities-extraction/app/src/main/java/com/auxolabs/cvision/streamlining/utils/NLPBasedSegmentation.java
/home/nstest-admin/Documents/Java/capture-activities-extraction/app/src/main/java/com/auxolabs/cvision/exceptions/OCRActivityResultNotFound.java
/home/nstest-admin/Documents/Java/capture-activities-extraction/app/src/main/java/com/auxolabs/cvision/models/cv/PBText2.java
/home/nstest-admin/Documents/Java/capture-activities-extraction/app/src/main/java/com/auxolabs/cvision/constants/CaptureAppConstants.java
/home/nstest-admin/Documents/Java/capture-activities-extraction/app/src/main/java/com/auxolabs/cvision/utils/LeptonicaUtils.java
/home/nstest-admin/Documents/Java/capture-activities-extraction/app/src/main/java/com/auxolabs/cvision/pipeline/utils/field/normalizers/DatesNormalizer.java
/home/nstest-admin/Documents/Java/capture-activities-extraction/app/src/main/java/com/auxolabs/cvision/pipeline/utils/field/normalizers/SSNNormalizer.java
/home/nstest-admin/Documents/Java/capture-activities-extraction/app/src/main/java/com/auxolabs/cvision/models/cv/SameLineGroup.java
/home/nstest-admin/Documents/Java/capture-activities-extraction/app/src/main/java/com/auxolabs/cvision/exceptions/FileRevisionNotFoundException.java
/home/nstest-admin/Documents/Java/capture-activities-extraction/app/src/main/java/com/auxolabs/cvision/pipeline/steps/helpers/ComparatorHelper.java
/home/nstest-admin/Documents/Java/capture-activities-extraction/app/src/main/java/com/auxolabs/cvision/models/ocr/Point.java
/home/nstest-admin/Documents/Java/capture-activities-extraction/app/src/main/java/com/auxolabs/cvision/pipeline/steps/MandrakeExtractorStep.java
/home/nstest-admin/Documents/Java/capture-activities-extraction/app/src/main/java/com/auxolabs/cvision/pipeline/utils/segmentation/Row.java
/home/nstest-admin/Documents/Java/capture-activities-extraction/app/src/main/java/com/auxolabs/cvision/metrics/pipeline/HealthCheckPipeline.java
/home/nstest-admin/Documents/Java/capture-activities-extraction/app/src/main/java/com/auxolabs/cvision/streamlining/constants/PositionalConstants.java
/home/nstest-admin/Documents/Java/capture-activities-extraction/app/src/main/java/com/auxolabs/cvision/ml/MLExtractorServiceImpl.java
/home/nstest-admin/Documents/Java/capture-activities-extraction/app/src/main/java/com/auxolabs/cvision/exceptions/InvalidDependencyException.java
/home/nstest-admin/Documents/Java/capture-activities-extraction/app/src/main/java/com/auxolabs/cvision/pipeline/utils/SkewDetector.java
/home/nstest-admin/Documents/Java/capture-activities-extraction/app/src/main/java/com/auxolabs/cvision/pipeline/steps/AnnotationExtractorStep.java
/home/nstest-admin/Documents/Java/capture-activities-extraction/app/src/main/java/com/auxolabs/cvision/ml/models/mlfieldextractionmodels/ResultItem.java
/home/nstest-admin/Documents/Java/capture-activities-extraction/app/src/main/java/com/auxolabs/cvision/utils/ResourceCleanup.java
/home/nstest-admin/Documents/Java/capture-activities-extraction/app/src/main/java/com/auxolabs/cvision/streamlining/segmentation/GenerateSegments.java
/home/nstest-admin/Documents/Java/capture-activities-extraction/app/src/main/java/com/auxolabs/cvision/streamlining/utils/BlockModifier.java
/home/nstest-admin/Documents/Java/capture-activities-extraction/app/src/main/java/com/auxolabs/cvision/pipeline/steps/SegmentationStep.java
/home/nstest-admin/Documents/Java/capture-activities-extraction/app/src/main/java/com/auxolabs/cvision/pipeline/steps/helpers/AnnotationHelper.java
/home/nstest-admin/Documents/Java/capture-activities-extraction/app/src/main/java/com/auxolabs/cvision/pipeline/steps/helpers/PositionalAnnotationHelper.java
/home/nstest-admin/Documents/Java/capture-activities-extraction/app/src/main/java/com/auxolabs/cvision/metrics/pipeline/MetricsDependencyResolver.java
/home/nstest-admin/Documents/Java/capture-activities-extraction/app/src/main/java/com/auxolabs/cvision/pipeline/utils/field/normalizers/FieldNormalizer.java
/home/nstest-admin/Documents/Java/capture-activities-extraction/app/src/main/java/com/auxolabs/cvision/pipeline/utils/field/normalizers/MRNNormalizer.java
/home/nstest-admin/Documents/Java/capture-activities-extraction/app/src/main/java/com/auxolabs/cvision/streamlining/helpers/AssignTokenPosition.java
/home/nstest-admin/Documents/Java/capture-activities-extraction/app/src/main/java/com/auxolabs/cvision/models/ocr/Lines.java
/home/nstest-admin/Documents/Java/capture-activities-extraction/app/src/main/java/com/auxolabs/cvision/pipeline/utils/ImagePreProcessor.java
/home/nstest-admin/Documents/Java/capture-activities-extraction/app/src/main/java/com/auxolabs/cvision/ml/models/mlfieldextractionmodels/AnnotationsItem.java
/home/nstest-admin/Documents/Java/capture-activities-extraction/app/src/main/java/com/auxolabs/cvision/models/ocr/SegBlock.java
/home/nstest-admin/Documents/Java/capture-activities-extraction/app/src/main/java/com/auxolabs/cvision/streamlining/utils/SegmentLiner.java
/home/nstest-admin/Documents/Java/capture-activities-extraction/app/src/main/java/com/auxolabs/cvision/pipeline/steps/OCROutputProcessorStep.java
/home/nstest-admin/Documents/Java/capture-activities-extraction/app/src/main/java/com/auxolabs/cvision/utils/OsUtils.java
/home/nstest-admin/Documents/Java/capture-activities-extraction/app/src/main/java/com/auxolabs/cvision/pipeline/utils/Segmentation.java
/home/nstest-admin/Documents/Java/capture-activities-extraction/app/src/main/java/com/auxolabs/cvision/ml/models/mlfieldextractionmodels/MLFields.java
/home/nstest-admin/Documents/Java/capture-activities-extraction/app/src/main/java/com/auxolabs/cvision/streamlining/utils/TextPreProcessingUtility.java
/home/nstest-admin/Documents/Java/capture-activities-extraction/app/src/main/java/com/auxolabs/cvision/di/ICapture.java
/home/nstest-admin/Documents/Java/capture-activities-extraction/app/src/main/java/com/joestelmach/natty/Parser.java
/home/nstest-admin/Documents/Java/capture-activities-extraction/app/src/main/java/com/auxolabs/cvision/pipeline/utils/field/modifiers/ModifierFactory.java
/home/nstest-admin/Documents/Java/capture-activities-extraction/app/src/main/java/com/auxolabs/cvision/di/MetricsComponentsModule.java
/home/nstest-admin/Documents/Java/capture-activities-extraction/app/src/main/java/com/auxolabs/cvision/pipeline/utils/field/modifiers/ExtendNameByLength.java
/home/nstest-admin/Documents/Java/capture-activities-extraction/app/src/main/java/com/auxolabs/cvision/pipeline/steps/PositionalExtractorStep.java
/home/nstest-admin/Documents/Java/capture-activities-extraction/app/src/main/java/com/auxolabs/cvision/metrics/pipeline/MetricsModelServicesClient.java
/home/nstest-admin/Documents/Java/capture-activities-extraction/app/src/main/java/com/auxolabs/cvision/metrics/pipeline/MetricsDB.java
/home/nstest-admin/Documents/Java/capture-activities-extraction/app/src/main/java/com/auxolabs/cvision/models/ocr/Para.java
/home/nstest-admin/Documents/Java/capture-activities-extraction/app/src/main/java/com/auxolabs/cvision/models/cv/RDObject.java
/home/nstest-admin/Documents/Java/capture-activities-extraction/app/src/main/java/com/auxolabs/cvision/models/nlp/PageModel.java
/home/nstest-admin/Documents/Java/capture-activities-extraction/app/src/main/java/com/auxolabs/cvision/ml/models/response/MLPredictResponseModel.java
/home/nstest-admin/Documents/Java/capture-activities-extraction/app/src/main/java/com/auxolabs/cvision/pipeline/utils/field/normalizers/NameNormalizer.java
/home/nstest-admin/Documents/Java/capture-activities-extraction/app/src/main/java/com/auxolabs/cvision/streamlining/utils/SortingUtility.java
/home/nstest-admin/Documents/Java/capture-activities-extraction/app/src/main/java/com/auxolabs/cvision/pipeline/utils/segmentation/Graph.java
/home/nstest-admin/Documents/Java/capture-activities-extraction/app/src/main/java/com/auxolabs/cvision/web/config/CaptureConfig.java
/home/nstest-admin/Documents/Java/capture-activities-extraction/app/src/main/java/com/auxolabs/cvision/models/namemodel/NameComparison.java
/home/nstest-admin/Documents/Java/capture-activities-extraction/app/src/main/java/com/auxolabs/cvision/pipeline/utils/field/modifiers/FieldModifier.java
/home/nstest-admin/Documents/Java/capture-activities-extraction/app/src/main/java/com/auxolabs/cvision/db/IDBService.java
/home/nstest-admin/Documents/Java/capture-activities-extraction/app/src/main/java/com/auxolabs/cvision/models/cv/LDObject.java
/home/nstest-admin/Documents/Java/capture-activities-extraction/app/src/main/java/com/auxolabs/cvision/web/exceptions/UnsupportedMediaTypeException.java
/home/nstest-admin/Documents/Java/capture-activities-extraction/app/src/main/java/com/auxolabs/cvision/streamlining/utils/LinesMerger.java
/home/nstest-admin/Documents/Java/capture-activities-extraction/app/src/main/java/com/auxolabs/cvision/pipeline/steps/helpers/ActivityResultHelper.java
/home/nstest-admin/Documents/Java/capture-activities-extraction/app/src/main/java/com/auxolabs/cvision/pipeline/utils/segmentation/StructureDetector.java
/home/nstest-admin/Documents/Java/capture-activities-extraction/app/src/main/java/com/auxolabs/cvision/pipeline/utils/SegmentMerger.java
/home/nstest-admin/Documents/Java/capture-activities-extraction/app/src/main/java/com/auxolabs/cvision/utils/OpenCVUtils.java
/home/nstest-admin/Documents/Java/capture-activities-extraction/app/src/main/java/com/auxolabs/cvision/pipeline/utils/field/normalizers/NormalizerFactory.java
/home/nstest-admin/Documents/Java/capture-activities-extraction/app/src/main/java/com/auxolabs/cvision/metrics/pipeline/MetricsLogger.java
/home/nstest-admin/Documents/Java/capture-activities-extraction/app/src/main/java/com/auxolabs/cvision/pipeline/steps/ResultWriterStep.java
/home/nstest-admin/Documents/Java/capture-activities-extraction/app/src/main/java/com/auxolabs/cvision/metrics/DBHealthWatchable.java
/home/nstest-admin/Documents/Java/capture-activities-extraction/app/src/main/java/com/auxolabs/cvision/web/config/CacheControlFilter.java
/home/nstest-admin/Documents/Java/capture-activities-extraction/app/src/main/java/com/auxolabs/cvision/pipeline/steps/MachineLearningExtractorStep.java
/home/nstest-admin/Documents/Java/capture-activities-extraction/app/src/main/java/com/auxolabs/cvision/web/resources/ExtendedJobManagerResource.java
/home/nstest-admin/Documents/Java/capture-activities-extraction/app/src/main/java/com/auxolabs/cvision/pipeline/steps/helpers/MandrakeProcessorHelper.java
/home/nstest-admin/Documents/Java/capture-activities-extraction/app/src/main/java/com/auxolabs/cvision/ml/models/response/MLExtractorResponseModel.java
/home/nstest-admin/Documents/Java/capture-activities-extraction/app/src/main/java/com/auxolabs/cvision/di/HealthcheckResourceDropwizard.java
/home/nstest-admin/Documents/Java/capture-activities-extraction/app/src/main/java/com/auxolabs/cvision/pipeline/steps/helpers/NpiExtractionStep.java
/home/nstest-admin/Documents/Java/capture-activities-extraction/app/src/main/java/com/auxolabs/cvision/exceptions/ActivityNotFoundException.java
/home/nstest-admin/Documents/Java/capture-activities-extraction/app/src/main/java/com/auxolabs/cvision/pipeline/utils/segmentation/Table.java
/home/nstest-admin/Documents/Java/capture-activities-extraction/app/src/main/java/com/auxolabs/cvision/metrics/pipeline/MetricsAnnotationsService.java
/home/nstest-admin/Documents/Java/capture-activities-extraction/app/src/main/java/com/auxolabs/cvision/pipeline/utils/field/modifiers/ExtendMrnByLength.java
/home/nstest-admin/Documents/Java/capture-activities-extraction/app/src/main/java/com/auxolabs/cvision/pipeline/steps/AnnotationAndMappingStep.java
/home/nstest-admin/Documents/Java/capture-activities-extraction/app/src/main/java/com/auxolabs/cvision/ml/models/request/MLExtractorRequestModel.java
/home/nstest-admin/Documents/Java/capture-activities-extraction/app/src/main/java/com/auxolabs/cvision/pipeline/steps/DocumentPropsFetcherStep.java
/home/nstest-admin/Documents/Java/capture-activities-extraction/app/src/main/java/com/auxolabs/cvision/web/exceptions/DeliveryFailedException.java
/home/nstest-admin/Documents/Java/capture-activities-extraction/app/src/main/java/com/auxolabs/cvision/models/nlp/Point.java
