/home/nstest-admin/Documents/Java/capture-activities-extraction/dpengine/src/main/java/com/auxolabs/capture/dateparser/models/TokenModel.java
/home/nstest-admin/Documents/Java/capture-activities-extraction/dpengine/src/main/java/com/auxolabs/capture/dateparser/DPEngineService.java
/home/nstest-admin/Documents/Java/capture-activities-extraction/dpengine/src/main/java/com/auxolabs/capture/dateparser/application/DateParserServiceImpl.java
/home/nstest-admin/Documents/Java/capture-activities-extraction/dpengine/src/main/java/com/auxolabs/capture/dateparser/utils/formatter/DateFormatter.java
/home/nstest-admin/Documents/Java/capture-activities-extraction/dpengine/src/main/java/com/auxolabs/capture/dateparser/constants/DateParserUtilityConstants.java
/home/nstest-admin/Documents/Java/capture-activities-extraction/dpengine/src/main/java/com/auxolabs/capture/dateparser/exceptions/DateParserRuleException.java
/home/nstest-admin/Documents/Java/capture-activities-extraction/dpengine/src/main/java/com/auxolabs/capture/dateparser/models/ProbabilityModel.java
/home/nstest-admin/Documents/Java/capture-activities-extraction/dpengine/src/main/java/com/auxolabs/capture/dateparser/exceptions/TokenPropertyNotFoundException.java
/home/nstest-admin/Documents/Java/capture-activities-extraction/dpengine/src/main/java/com/auxolabs/capture/dateparser/models/DateCandidateModel.java
/home/nstest-admin/Documents/Java/capture-activities-extraction/dpengine/src/main/java/com/auxolabs/capture/dateparser/exceptions/DateParserInvalidFormat.java
/home/nstest-admin/Documents/Java/capture-activities-extraction/dpengine/src/main/java/com/auxolabs/capture/dateparser/utils/ProbabilityUtils.java
/home/nstest-admin/Documents/Java/capture-activities-extraction/dpengine/src/main/java/com/joestelmach/natty/Parser.java
/home/nstest-admin/Documents/Java/capture-activities-extraction/dpengine/src/main/java/com/auxolabs/capture/dateparser/parser/DateRuleParser.java
/home/nstest-admin/Documents/Java/capture-activities-extraction/dpengine/src/main/java/com/auxolabs/capture/dateparser/models/OutputDateModel.java
/home/nstest-admin/Documents/Java/capture-activities-extraction/dpengine/src/main/java/com/auxolabs/capture/dateparser/utils/DateParserUtility.java
/home/nstest-admin/Documents/Java/capture-activities-extraction/dpengine/src/main/java/com/auxolabs/capture/dateparser/models/DateNormXYModel.java
/home/nstest-admin/Documents/Java/capture-activities-extraction/dpengine/src/main/java/com/auxolabs/capture/dateparser/utils/formatter/DateNormalizer.java
