/home/nstest-admin/Documents/Java/capture-activities-extraction/positional/src/main/java/com/auxolabs/capture/positional/operations/NumberBaseOperation.java
/home/nstest-admin/Documents/Java/capture-activities-extraction/positional/src/main/java/com/auxolabs/capture/positional/models/LexiconModel.java
/home/nstest-admin/Documents/Java/capture-activities-extraction/positional/src/main/java/com/auxolabs/capture/positional/operations/NumberFunction.java
/home/nstest-admin/Documents/Java/capture-activities-extraction/positional/src/main/java/com/auxolabs/capture/positional/utils/lexer/indexer/types/TagModel.java
/home/nstest-admin/Documents/Java/capture-activities-extraction/positional/src/main/java/com/auxolabs/capture/positional/operations/BaseOperation.java
/home/nstest-admin/Documents/Java/capture-activities-extraction/positional/target/generated-sources/antlr4/com/auxolabs/capture/positional/parsers/PositionalRuleListener.java
/home/nstest-admin/Documents/Java/capture-activities-extraction/positional/src/main/java/com/auxolabs/capture/positional/utils/lexer/indexer/Lexer.java
/home/nstest-admin/Documents/Java/capture-activities-extraction/positional/src/main/java/com/auxolabs/capture/positional/exceptions/PositionalRuleException.java
/home/nstest-admin/Documents/Java/capture-activities-extraction/positional/src/main/java/com/auxolabs/capture/positional/exceptions/ThrowingErrorListener.java
/home/nstest-admin/Documents/Java/capture-activities-extraction/positional/target/generated-sources/antlr4/com/auxolabs/capture/positional/parsers/PositionalRuleBaseListener.java
/home/nstest-admin/Documents/Java/capture-activities-extraction/positional/src/main/java/com/auxolabs/capture/positional/utils/lexer/indexer/index/State.java
/home/nstest-admin/Documents/Java/capture-activities-extraction/positional/src/main/java/com/auxolabs/capture/positional/operations/BooleanBaseOperation.java
/home/nstest-admin/Documents/Java/capture-activities-extraction/positional/src/main/java/com/auxolabs/capture/positional/utils/lexer/indexer/index/Tags.java
/home/nstest-admin/Documents/Java/capture-activities-extraction/positional/src/main/java/com/auxolabs/capture/positional/operations/BooleanFunction.java
/home/nstest-admin/Documents/Java/capture-activities-extraction/positional/src/main/java/com/auxolabs/capture/positional/operations/RelationalOperation.java
/home/nstest-admin/Documents/Java/capture-activities-extraction/positional/src/main/java/com/auxolabs/capture/positional/utils/lexer/indexer/index/Annotation1.java
/home/nstest-admin/Documents/Java/capture-activities-extraction/positional/src/main/java/com/auxolabs/capture/positional/operations/NotOperation.java
/home/nstest-admin/Documents/Java/capture-activities-extraction/positional/src/main/java/com/auxolabs/capture/positional/models/LexiconSpecialPropTypes.java
/home/nstest-admin/Documents/Java/capture-activities-extraction/positional/src/main/java/com/auxolabs/capture/positional/utils/lexer/indexer/types/TokenSet.java
/home/nstest-admin/Documents/Java/capture-activities-extraction/positional/src/main/java/com/auxolabs/capture/positional/models/PositionalFieldResultsModel.java
/home/nstest-admin/Documents/Java/capture-activities-extraction/positional/src/main/java/com/auxolabs/capture/positional/operations/BaseFunction.java
/home/nstest-admin/Documents/Java/capture-activities-extraction/positional/target/generated-sources/antlr4/com/auxolabs/capture/positional/parsers/PositionalRuleParser.java
/home/nstest-admin/Documents/Java/capture-activities-extraction/positional/src/main/java/com/auxolabs/capture/positional/utils/FunctionCaller.java
/home/nstest-admin/Documents/Java/capture-activities-extraction/positional/src/main/java/com/auxolabs/capture/positional/models/OntologyModel.java
/home/nstest-admin/Documents/Java/capture-activities-extraction/positional/src/main/java/com/auxolabs/capture/positional/exceptions/TokenPropertyNotFoundException.java
/home/nstest-admin/Documents/Java/capture-activities-extraction/positional/src/main/java/com/auxolabs/capture/positional/parsers/RuleParserUtil.java
/home/nstest-admin/Documents/Java/capture-activities-extraction/positional/src/main/java/com/auxolabs/capture/positional/models/RuleOpModel.java
/home/nstest-admin/Documents/Java/capture-activities-extraction/positional/src/main/java/com/auxolabs/capture/positional/operations/AssignmentOperation.java
/home/nstest-admin/Documents/Java/capture-activities-extraction/positional/src/main/java/com/auxolabs/capture/positional/operations/PowOperation.java
/home/nstest-admin/Documents/Java/capture-activities-extraction/positional/src/main/java/com/auxolabs/capture/positional/utils/lexer/indexer/index/Filter.java
/home/nstest-admin/Documents/Java/capture-activities-extraction/positional/src/main/java/com/auxolabs/capture/positional/init/PositionalInitializer.java
/home/nstest-admin/Documents/Java/capture-activities-extraction/positional/src/main/java/com/auxolabs/capture/positional/operations/ArithmeticOperation.java
/home/nstest-admin/Documents/Java/capture-activities-extraction/positional/src/main/java/com/auxolabs/capture/positional/utils/ops/SortByPropertyAsc.java
/home/nstest-admin/Documents/Java/capture-activities-extraction/positional/src/main/java/com/auxolabs/capture/positional/PositionalService.java
/home/nstest-admin/Documents/Java/capture-activities-extraction/positional/src/main/java/com/auxolabs/capture/positional/utils/ops/BasePositionalOp.java
/home/nstest-admin/Documents/Java/capture-activities-extraction/positional/src/main/java/com/auxolabs/capture/positional/models/TokenModel.java
/home/nstest-admin/Documents/Java/capture-activities-extraction/positional/src/main/java/com/auxolabs/capture/positional/models/NumberOpResultModel.java
/home/nstest-admin/Documents/Java/capture-activities-extraction/positional/src/main/java/com/auxolabs/capture/positional/application/PositionalServiceImpl.java
/home/nstest-admin/Documents/Java/capture-activities-extraction/positional/src/main/java/com/auxolabs/capture/positional/operations/LogicalOperation.java
/home/nstest-admin/Documents/Java/capture-activities-extraction/positional/src/main/java/com/auxolabs/capture/positional/operations/AbsOperation.java
/home/nstest-admin/Documents/Java/capture-activities-extraction/positional/src/main/java/com/auxolabs/capture/positional/models/PositionalFieldDimensionsModel.java
/home/nstest-admin/Documents/Java/capture-activities-extraction/positional/src/main/java/com/auxolabs/capture/positional/exceptions/PositionalProfileNotFoundException.java
/home/nstest-admin/Documents/Java/capture-activities-extraction/positional/src/main/java/com/auxolabs/capture/positional/utils/ops/PositionalOpsFactory.java
/home/nstest-admin/Documents/Java/capture-activities-extraction/positional/target/generated-sources/antlr4/com/auxolabs/capture/positional/parsers/PositionalRuleLexer.java
/home/nstest-admin/Documents/Java/capture-activities-extraction/positional/src/main/java/com/auxolabs/capture/positional/utils/lexer/indexer/index/FilterMap.java
/home/nstest-admin/Documents/Java/capture-activities-extraction/positional/src/main/java/com/auxolabs/capture/positional/engine/PostionalEngine.java
/home/nstest-admin/Documents/Java/capture-activities-extraction/positional/src/main/java/com/auxolabs/capture/positional/models/BooleanOpResultModel.java
/home/nstest-admin/Documents/Java/capture-activities-extraction/positional/src/main/java/com/auxolabs/capture/positional/exceptions/MissingTokenException.java
/home/nstest-admin/Documents/Java/capture-activities-extraction/positional/src/main/java/com/auxolabs/capture/positional/models/OpResultModel.java
/home/nstest-admin/Documents/Java/capture-activities-extraction/positional/src/main/java/com/auxolabs/capture/positional/utils/lexer/indexer/index/StateMachine.java
/home/nstest-admin/Documents/Java/capture-activities-extraction/positional/src/main/java/com/auxolabs/capture/positional/utils/lexer/indexer/types/StateType.java
/home/nstest-admin/Documents/Java/capture-activities-extraction/positional/src/main/java/com/auxolabs/capture/positional/constants/PositionalRuleConstants.java
/home/nstest-admin/Documents/Java/capture-activities-extraction/positional/src/main/java/com/auxolabs/capture/positional/exceptions/MissingPropertyException.java
/home/nstest-admin/Documents/Java/capture-activities-extraction/positional/src/main/java/com/auxolabs/capture/positional/utils/lexer/utils/Tokenizer.java
/home/nstest-admin/Documents/Java/capture-activities-extraction/positional/src/main/java/com/auxolabs/capture/positional/exceptions/FunctionNotFoundException.java
/home/nstest-admin/Documents/Java/capture-activities-extraction/positional/src/main/java/com/auxolabs/capture/positional/utils/lexer/utils/Utilities.java
