/home/nstest-admin/Documents/Java/capture-activities-extraction/dpengine/src/test/java/com/auxolabs/capture/dateparser/application/DateParserServiceImplTest.java
/home/nstest-admin/Documents/Java/capture-activities-extraction/dpengine/src/test/java/com/auxolabs/capture/dateparser/utils/DateParserUtilityTest.java
/home/nstest-admin/Documents/Java/capture-activities-extraction/dpengine/src/test/java/com/auxolabs/capture/dateparser/parsers/DateParserUtilTest.java
